{
   "ad_report_please": {
      "description": "Link to the ad report page on our support site. This is found on the Support tab of the options.",
      "message": "Om du ser en annons, skicka inte en felrapport. Rapportera ett \u003Ca>reklamtillägg\u003C/a>!"
   },
   "adalreadyblocked": {
      "description": "On the ad report page, telling a user there is nothing to do",
      "message": "Du behöver inte göra något, eftersom reklamen redan är blockerad"
   },
   "adblock_click_for_details": {
      "description": "Tooltip on the AdBlock button, to help users understand that they can click the button, and that they can control the number badge that appears on the button.",
      "message": "AdBlock - Klicka för meny"
   },
   "adblock_is_paused": {
      "description": "resourceblocking page string",
      "message": "AdBlock är pausad. Därför visas inga resurser, så den här sidan kan inte användas. Starta AdBlock och försök igen."
   },
   "adblock_outdated_chrome": {
      "description": "Ad report page instructions to update AdBlock in Chrome. The link will point to 'chrome://chrome/extensions/'",
      "message": "Du använder en gammal version av AdBlock. Gå till \u003Ca href='#'>the extensions page\u003C/a>, bocka i 'Programerarläge' och klicka på 'Uppdatera tillägg nu'"
   },
   "adblock_wont_run_on_pages_matching": {
      "description": "Message displayed when the whitelister dialog will whitelist part of an entire website, for example '*.google.com/reader/*'.  The URL will appear on the next line.",
      "message": "AdBlock avaktiveras på alla sidor som matchar:"
   },
   "adblockinglist": {
      "description": "List for subscribed ad blocking fiters",
      "message": "Reklamblockerande filterlistor"
   },
   "adblockreportinganad": {
      "description": "Title of the ad report page",
      "message": "AdBlock - Rapportera ett reklamtillägg"
   },
   "adblocksupport": {
      "description": "Title of the support tab",
      "message": "AdBlock Support"
   },
   "adblockupdates": {
      "description": "Subtitle on the Support tab of the options",
      "message": "AdBlock-uppdateringar"
   },
   "addthisfilter": {
      "description": "resourceblocking page string",
      "message": "Lägg till detta filter"
   },
   "adreport2": {
      "description": "Instructions on ad reporting page. 'Customize' should be the same text as the name of the 'Customize' tab.",
      "message": "Har du hittat ett reklamtillägg? Då skall vi försöka hitta rätt ställe att rapportera till!\u003Cbr/> Kom ihåg! Rapportera reklam är frivilligt! Om du inte vill göra detta, kan du bara stänga det här fönstret och istället blockera reklamen genom att lägga till ett eget filter under fliken 'Anpassa' i AdBlock-alternativ!"
   },
   "adstillappear": {
      "description": "Question on ad report page",
      "message": "Är reklamtillägget fortfarande kvar?"
   },
   "advanced_options2": {
      "description": "Checkbox on the 'General' tab of the Options page",
      "message": "Jag är avancerad användare, visa avancerade alternativ"
   },
   "allow_whitelisting_youtube_channels": {
      "description": "Checkbox on the 'General' tab of the Options page",
      "message": "Tillåt vitlistning av specifika YouTube-kanaler"
   },
   "anysite": {
      "description": "resourceblocking page string",
      "message": "Alla webbsidor"
   },
   "appliedwhenbrowsing": {
      "description": "resourceblocking page string",
      "message": "Detta filter skall användas när du besöker:"
   },
   "betalabel": {
      "description": "Label for beta features in AdBlock Options",
      "message": "Beta"
   },
   "blacklistclickmessage": {
      "description": "Message at the top of the blacklist options tab",
      "message": "Högerklicka ett reklamtillägg på en sida för att blockera det -- eller blockera det manuellt här."
   },
   "blacklisterattrwillbe": {
      "description": "Checkbox label",
      "message": "$attribute$ är $value$",
      "placeholders": {
         "attribute": {
            "content": "$1",
            "example": "class"
         },
         "value": {
            "content": "$2",
            "example": "AdBanner"
         }
      }
   },
   "blacklisterblockedelement": {
      "description": "Tells the user what the blocked element is on the slider page",
      "message": "Blockerade element:"
   },
   "blacklisterblocksalloftype": {
      "description": "Warns the user that all elements of type X will be blocked",
      "message": "Varning! Detta filter blockerar alla $elementtype$-element på sidan!",
      "placeholders": {
         "elementtype": {
            "content": "$1",
            "example": "DIV"
         }
      }
   },
   "blacklistereditfilter": {
      "description": "Text if the user wants to manually edit a filter. 'OK' is the standard javascript popup button text.",
      "message": "Redigera filter här under, och tryck 'OK'"
   },
   "blacklistereditinvalid1": {
      "description": "Messagebox if the manually edited filter is invalid. Error messages are not translated.",
      "message": "Filtret är ogiltigt: $exception$",
      "placeholders": {
         "exception": {
            "content": "$1",
            "example": "This filter is not supported"
         }
      }
   },
   "blacklistermatches": {
      "description": "Tells the user multiple matches were found",
      "message": "Det matchar $matchcount$ objekt på den här sidan.",
      "placeholders": {
         "matchcount": {
            "content": "$1",
            "example": "5"
         }
      }
   },
   "blacklisternofilter": {
      "description": "Warning if the user hasn't specified a filter",
      "message": "Inget filter specificerat!"
   },
   "blacklisternotsure": {
      "description": "Blacklister attribute choosing page message",
      "message": "\u003Cb>Osäker?\u003C/b> Tryck bara 'Blockera'."
   },
   "blacklisteroptions1": {
      "description": "Blacklister attribute choosing page message",
      "message": "Vad tror du kommer att vara sant om det här reklamtillägget varje gång du besöker sidan?"
   },
   "blacklisteroptionstitle": {
      "description": "Blacklister options page title",
      "message": "Sista steget: Vad gör det här till ett reklamtillägg?"
   },
   "blacklistersinglematch": {
      "description": "Tells the user only one match was found",
      "message": "Det matchar \u003Cb>1\u003C/b> objekt på den här sidan."
   },
   "blacklisterthefilter": {
      "description": "Blacklister attribute choosing page message",
      "message": "Filtret, som kan ändras på Alternativ-sidan:"
   },
   "blacklistertype": {
      "description": "node name is called 'Type'",
      "message": "Typ"
   },
   "blacklisterwarningnofilter": {
      "description": "Warns the user that no filter was specified",
      "message": "\u003Cb>OBS!\u003C/b> Inget filter specificerat!"
   },
   "block_an_ad_on_this_page": {
      "description": "Toolbar button menu entry and context menu entry",
      "message": "Blockera ett objekt på denna sida"
   },
   "block_by_url_instead": {
      "description": "Link on blacklister slider page",
      "message": "Avancerat: Blockera via URL istället"
   },
   "block_this_ad": {
      "description": "Context and popup menu entry",
      "message": "Blockera det här reklamtillägget"
   },
   "blockanadtitle": {
      "description": "Title of the first two dialogs of the blacklister",
      "message": "Blockera ett objekt"
   },
   "blockdomain": {
      "description": "Message of the url and css -blocking area",
      "message": "Domän som skall filtreras"
   },
   "blocked_ads": {
      "description": "Title for popup menu section showing number of ads blocked",
      "message": "Blockerade tillägg:"
   },
   "blocked_n_in_total": {
      "description": "Shown below the 'Blocked ads:' message. Shows the number of ads blocked since AdBlock was installed. $count$ will be a number between 1 and 999,999,999.",
      "message": "$count$ totalt",
      "placeholders": {
         "count": {
            "content": "\u003Ca>123,456\u003C/a>",
            "example": "The number of ads blocked. Do not make any changes to this placeholder when translating."
         }
      }
   },
   "blocked_n_on_this_page": {
      "description": "Shown below the 'Blocked ads:' message. Shows the number of ads blocked on this page. $count$ will be a number between 1 and 999.",
      "message": "$count$ på den här sidan",
      "placeholders": {
         "count": {
            "content": "\u003Ca>123\u003C/a>",
            "example": "The number of ads blocked. Do not make any changes to this placeholder when translating."
         }
      }
   },
   "blockeverycontaining": {
      "description": "resourceblocking page string",
      "message": "Blockera varje resurs som innehåller:"
   },
   "blockmoreads": {
      "description": "Section header on the 'Customize' tab",
      "message": "Blockera fler reklamtillägg:"
   },
   "blockurlwithtext": {
      "description": "Message of the url-blocking area",
      "message": "Blockera URL:er innehållande den här texten"
   },
   "bugreport": {
      "description": "Link to send a bug report on the Support tab of the options",
      "message": "Varför inte skicka en \u003Ca href='#' id='report'> felrapport\u003C/a>?"
   },
   "buttonback": {
      "description": "Back to previous wizard page button",
      "message": "Tillbaka"
   },
   "buttonblockit": {
      "description": "Block button",
      "message": "Blockera"
   },
   "buttoncancel": {
      "description": "Cancel button",
      "message": "Avbryt"
   },
   "buttonedit": {
      "description": "Edit filter manually button",
      "message": "Redigera"
   },
   "buttonexclude": {
      "description": "Button for excluding a domain in the whitelister dialog",
      "message": "Undanta"
   },
   "buttonlooksgood": {
      "description": "Looks good button",
      "message": "Ser bra ut"
   },
   "buttonok": {
      "description": "OK button",
      "message": "OK"
   },
   "cantblockflash": {
      "description": "Result of the final ad report question",
      "message": "Vi kan inte blockera reklam i Flash och andra tillägg än. Vi väntar på stöd från webbläsaren och WebKit."
   },
   "cantblockflashwarning": {
      "description": "Text of the final ad report question",
      "message": "Framträder reklamen i eller före en film eller något annat tillägg, som ett Flash-spel?"
   },
   "casesensitive": {
      "description": "resourceblocking page string",
      "message": "Detta filter är skiftlägeskänsligt:"
   },
   "changelabel": {
      "description": "Link to change resources on the resourceblock page",
      "message": "Ändra"
   },
   "checkforupdates": {
      "description": "Displayed when AdBlock is checking the newest available version",
      "message": "Sök efter uppdateringar (tar bara några sekunder)..."
   },
   "checkinfirefox_1": {
      "description": "instruction for how to check Firefox/Chrome for a reported ad",
      "message": "Installera Firefox $chrome$ om du inte redan har gjort det.",
      "placeholders": {
         "chrome": {
            "content": "\u003Cspan id='chrome2'>\u003C/span>",
            "example": "'or Chrome' (This will only be shown in Safari. Chrome users will not see this.)"
         }
      }
   },
   "checkinfirefox_2": {
      "description": "Instruction for how to check Firefox/Chrome for a reported ad.",
      "message": "Installera Adblock Plus för Firefox $chrome$ om du inte redan har gjort det.",
      "placeholders": {
         "chrome": {
            "content": "\u003Cspan id='adblockforchrome'>\u003C/span>",
            "example": "'or AdBlock for Chrome' (This will only be shown in Safari. Chrome users will not see this.)"
         }
      }
   },
   "checkinfirefox_3": {
      "description": "Instruction for how to check Firefox/Chrome for a reported ad",
      "message": "I den webbläsaren prenumererar du på samma filterlistor som här (förutom AdBlocks anpassade filter i FireFox)."
   },
   "checkinfirefox_4": {
      "description": "Instruction for how to check Firefox/Chrome for a reported ad",
      "message": "Surfa till sidan med reklamtillägget, i den webbläsaren."
   },
   "checkinfirefox_5": {
      "description": "Instruction for how to check Firefox/Chrome for a reported ad",
      "message": "Finns reklamtillägget i den webbläsaren också?"
   },
   "checkinfirefoxtitle": {
      "description": "Tell a user to see if a reported ad also appears in Firefox/Chrome",
      "message": "Kontrollera i Firefox $chrome$",
      "placeholders": {
         "chrome": {
            "content": "\u003Cspan id='chrome1'>\u003C/span>",
            "example": "'or Chrome' (This will only be shown in Safari. Chrome users will not see this.)"
         }
      }
   },
   "checkinternetconnection": {
      "description": "Displayed when AdBlock is checking the newest available version and an error occurs while reporting an ad on adreport page",
      "message": "För att rapportera ett reklamtillägg, måste du vara ansluten till internet."
   },
   "chromebutton_how_to_hide2": {
      "description": "Message explaining how to hide the AdBlock toolbar button. 'Hide Button' should match the text that Chrome displays when you right click a toolbar button.",
      "message": "Du kan dölja knappen genom att högerklicka på den och välja 'Dölj knapp'. Visa den igen under chrome://chrome/extensions."
   },
   "cleanuplist2": {
      "description": "Option at the bottom of the 'Customize' options tab",
      "message": "Rensa denna lista"
   },
   "clickthead": {
      "description": "When you have to click the ad to continue",
      "message": "Klicka på objektet, så hjälper jag dig igenom blockeringen."
   },
   "clickupdatefilters": {
      "description": "Instruction on ad report page",
      "message": "Klick här: \u003Ca>Uppdatera mina filter!\u003C/a>"
   },
   "close": {
      "description": "resourceblocking page string",
      "message": "Stäng"
   },
   "confirm_undo_custom_filters": {
      "description": "Confirmation message when user wants to undo their custom blocks for a domain. $count$ will be a number between 1 and 999,999,999, $host$ will be the domain where the custom blocks will be reset.",
      "message": "Vill du verkligen ta bort $count$ blockering(ar) som du har skapat för $host$?",
      "placeholders": {
         "count": {
            "content": "$1",
            "example": "The number of custom blocks for a domain."
         },
         "host": {
            "content": "$2",
            "example": "code.google.ph, ph.msn.com, stackoverflow.com"
         }
      }
   },
   "contributors": {
      "description": "Link to the contributors page on the Support tab of the options",
      "message": "Vi har också en \u003Ca>sida\u003C/a> som presenterar människorna bakom AdBlock!"
   },
   "correctfilters": {
      "description": "On the ad report page, label describing having the right set of filters",
      "message": "Korrekt filter"
   },
   "csstomatch": {
      "description": "Message of the css-hiding area",
      "message": "CSS att matcha"
   },
   "customfilters": {
      "description": "List for custom filters the user subscribed to",
      "message": "Anpassade filterlistor"
   },
   "custompattern": {
      "description": "Label in front of the 'custom block pattern' textbox in resourceblock, after clicking a resource",
      "message": "Anpassat:"
   },
   "debuginfo": {
      "description": "Users can click this link to provide debug information to AdBlock staff",
      "message": "Har vårt team begärt någon felinformation? Klicka \u003Ca href='#' id='debug'> här\u003C/a> för det!"
   },
   "debuginlogoption": {
      "description": "Checkbox on the 'General' tab of the Options page",
      "message": "Visa felsökningsinformation i loggen (vilket gör AdBlock långsammare)"
   },
   "description2": {
      "description": "Extension description in manifest. Should not exceed 132 characters.",
      "message": "Det mest populära Chrome-tillägget, med över 40 miljoner användare!  Blockerar reklamtillägg över hela webben."
   },
   "disableallextensions": {
      "description": "Instruction on ad report page",
      "message": "Inaktivera alla tillägg utom AdBlock"
   },
   "disabled_by_filter_lists": {
      "description": "Message shown when a user tries to unwhitelist a web page that has been whitelisted by a rule in a subscribed filter list",
      "message": "Ledsen, men AdBlock är inaktiverat på den här sidan av en av dina filterlistor."
   },
   "disabled_on_this_page": {
      "description": "Message shown in toolbar button on web pages that have been whitelisted",
      "message": "AdBlock är inaktiverad på denna sida."
   },
   "disabledwhenbrowsing": {
      "description": "On the resourceblocking page, choose on which sites the filter should be disabled",
      "message": "Detta filter kommer att inaktiveras när du surfar:"
   },
   "disableforchromeandsafaristeptwo": {
      "description": "Step 2 for disabling Chrome and Safari extensions",
      "message": "Avaktivera alla tillägg \u003Cb>utom\u003C/b> AdBlock. \u003Cb>Lämna AdBlock aktiverat\u003C/b>."
   },
   "disableforchromestepone": {
      "description": "Step 1 for disabling Chrome extensions",
      "message": "Öppna \u003Ca href='#'>Tillägg\u003C/a>"
   },
   "disableforsafaristepone": {
      "description": "Step 1 for disabling Safari extensions",
      "message": "Klicka på Safari-menyn &rarr; Alternativ &rarr; Tillägg."
   },
   "doesntmatchoriginal": {
      "description": "resourceblocking page string",
      "message": "Strängen du matat in, matchar inte den resurs du försöker blockera! Vill du fortsätta ändå?"
   },
   "dont_run_on_pages_on_domain": {
      "description": "Menu entry to open the whitelist wizard",
      "message": "Undanta denna domän"
   },
   "dont_run_on_this_page": {
      "description": "Menu entry to whitelist a page",
      "message": "Undanta denna sida"
   },
   "enable_adblock": {
      "description": "Link text to un-whitelist a page, displayed immediately after 'AdBlock is disabled on this page'",
      "message": "Aktivera AdBlock på denna sida"
   },
   "englishonly": {
      "description": "Lets the user know that a link/page is available in English only",
      "message": "Endast på engelska"
   },
   "excludedomainorurl": {
      "description": "Message of the exclude area",
      "message": "Domän eller url där AdBlock inte skall blockera något"
   },
   "excludefilterremoved": {
      "description": "Warning when a page exclusion rule was removed in resourceblock.html",
      "message": "Filtret togs bort. Uppdatera originalsidan för att generera lista med resurser."
   },
   "failedtofetchfilter": {
      "description": "Error messagebox",
      "message": "Kunde inte hämta detta filter!"
   },
   "fetchinglabel": {
      "description": "Status label",
      "message": "Hämtar... vänta!"
   },
   "ff_checkinchrome_1": {
      "description": "Instruction for how to check Chrome for a reported ad",
      "message": "Installera Chrome, om du inte har det."
   },
   "ff_checkinchrome_2": {
      "description": "Instruction for how to check Chrome for a reported ad",
      "message": "Installera AdBlock för Chrome, om du inte har det."
   },
   "ff_checkinchrome_3": {
      "description": "Instruction for how to check Chrome for a reported ad",
      "message": "Prenumerera på samma filterlistor som du har här, i Chrome."
   },
   "ff_checkinchrome_4": {
      "description": "Instruction for how to check Chrome for a reported ad",
      "message": "Gå till sidan med reklamtillägget, i Chrome."
   },
   "ff_checkinchrome_5": {
      "description": "Instruction for how to check Chrome for a reported ad",
      "message": "Ser du reklamtillägget i Chrome också?"
   },
   "ff_checkinchrometitle": {
      "description": "Tell a user to see if a reported ad also appears in Chrome",
      "message": "Kolla in Chrome"
   },
   "filteradblock_custom": {
      "description": "A filter list",
      "message": "AdBlock-anpassat filter (Rekommenderas)"
   },
   "filterannoyances": {
      "description": "Name of the filter list",
      "message": "Fanboy's Annoyances (tar bort störande innehåll från webben)"
   },
   "filterantisocial": {
      "description": "Name of the filter list",
      "message": "Antisocial filterlista (tar bort knappar för sociala medier)"
   },
   "filterchinese": {
      "description": "language",
      "message": "Kinesiska"
   },
   "filterczech": {
      "description": "Language names for a filter list",
      "message": "Tjeckiska och Slovakiska"
   },
   "filterdanish": {
      "description": "language",
      "message": "Danska"
   },
   "filterdutch": {
      "description": "language",
      "message": "Nederländska"
   },
   "filtereasylist": {
      "description": "A filter list",
      "message": "EasyList (Rekommenderas)"
   },
   "filtereasylist_plun_korean": {
      "description": "language",
      "message": "Koreanska"
   },
   "filtereasylist_plus_bulgarian": {
      "description": "language",
      "message": "Bulgariska"
   },
   "filtereasylist_plus_finnish": {
      "description": "language",
      "message": "Finska"
   },
   "filtereasylist_plus_french": {
      "description": "language",
      "message": "Franska"
   },
   "filtereasylist_plus_german": {
      "description": "language",
      "message": "Tyska"
   },
   "filtereasylist_plus_greek": {
      "description": "language",
      "message": "Grekiska"
   },
   "filtereasylist_plus_indonesian": {
      "description": "A filter list",
      "message": "Indonesiska"
   },
   "filtereasylist_plus_polish": {
      "description": "language",
      "message": "Polska"
   },
   "filtereasylist_plus_romanian": {
      "description": "language",
      "message": "Rumänska"
   },
   "filtereasylist_plus_spanish": {
      "description": "language",
      "message": "Spanska"
   },
   "filtereasyprivacy": {
      "description": "A filter list",
      "message": "EasyPrivacy (Integritetsskydd)"
   },
   "filterhasbeenadded": {
      "description": "resourceblocking page string",
      "message": "Filtret blev korrekt aktiverat!\nUppdatera sidan för att se resultatet!"
   },
   "filterhungarian": {
      "description": "language",
      "message": "Ungerska"
   },
   "filterisraeli": {
      "description": "language",
      "message": "Hebreiska"
   },
   "filteritalian": {
      "description": "language",
      "message": "Italienska"
   },
   "filterjapanese": {
      "description": "language",
      "message": "Japanska"
   },
   "filterlatvian": {
      "description": "A filter list",
      "message": "Lettiska"
   },
   "filterlistlink": {
      "description": "Explanation of the filter lists",
      "message": "Prenumerera inte på mer än du behöver -- Varje lista gör Chrome en liten aning långsammare! Listornas ursprung, och fler listor hittas \u003Ca>här\u003C/a>."
   },
   "filterlistsrock": {
      "description": "Header text on the Customize tab. 'Filter lists' should be the same text as the name of the 'Filter lists' tab.",
      "message": "Filterlistorna blockerar de flesta reklamtillägg på webben.  Du kan också:"
   },
   "filtermalware": {
      "description": "A filter list",
      "message": "Skydd mot skadlig kod"
   },
   "filternorwegian": {
      "description": "A filter list",
      "message": "Norska"
   },
   "filterorigin": {
      "description": "Tooltip of matching filter in resources list, telling which filter list contains the filter",
      "message": "Filterlista:\n$list$",
      "placeholders": {
         "list": {
            "content": "$1",
            "example": "A filter list name OR AdBlock OR the translation of 'tabcustomize'"
         }
      }
   },
   "filterrussian": {
      "description": "Language names for a filter list",
      "message": "Ryska och Ukrainska"
   },
   "filtersavewarning": {
      "description": "Warning when blacklisting manually",
      "message": "\u003Cb>Varning!\u003C/b> Ett misstag här, kan resultera i att andra filter, inklusive dom officiella, kan förstöras!\u003Cbr/>Läs '\u003Ca>syntax-guiden\u003C/a>' för att lära hur man skapar avancerade svart- och vitlistor."
   },
   "filterstabtitle": {
      "description": "Title of the filter list tab",
      "message": "Prenumerera på filterlistor"
   },
   "filterswedish": {
      "description": "A filter list",
      "message": "Svenska"
   },
   "filterturkish": {
      "description": "A filter list",
      "message": "Turkiska"
   },
   "filterwarning_removal": {
      "description": "Name of the filter list",
      "message": "Anti-AdBlocklista (tar bort meddelanden om att använda AdBlock)"
   },
   "findingads": {
      "description": "When you press ctrl-shift-K the blacklister searches for ads",
      "message": "Söker reklamtillägg...\u003Cbr/>\u003Cbr/>\u003Ci>Det tar bara ett ögonblick!\u003C/i>"
   },
   "firefox_explanation": {
      "description": "Explanation of the Check-in-Firefox or Chrome step in the ad reporter",
      "message": "Syftet med denna fråga, är att avgöra vem som skall ta emot din rapport. Besvarar du denna fråga felaktigt, kommer rapporten att skickas till fel personer och riskerar därmed att ignoreras."
   },
   "fixityourself": {
      "description": "Telling users who won't report an ad to us how to handle it for themselves",
      "message": "OK, du kan fortfarande blockera reklamen själv på 'Alternativ-sidan'. Tack!"
   },
   "flashads": {
      "description": "Title of the final ad report question if the ad didn't appear in Firefox",
      "message": "Video och Flash"
   },
   "format_site1_site2_site3": {
      "description": "Example showing users how to input a list of sites on the Customize tab. You can translate the 'news' and 'siteN' but leave the '|'s and '~'s in place.",
      "message": "Format: ~sida1.com|~sida2.se|~nyheter.sida3.org"
   },
   "foundbug": {
      "description": "Subtitle on the Support tab of the options",
      "message": "Hittat ett fel?"
   },
   "generaloptions": {
      "description": "Title of first tab page",
      "message": "Allmäna alternativ"
   },
   "googletextads2": {
      "description": "Checkbox on the 'General' tab of the Options page",
      "message": "Jag gillar texttilläggen i Googles sökresultat... visa dom"
   },
   "headerfilter": {
      "description": "resourceblocking page string",
      "message": "Matchat filter"
   },
   "headerresource": {
      "description": "resourceblocking page string",
      "message": "Resurs"
   },
   "headertype": {
      "description": "resourceblocking page string",
      "message": "Typ"
   },
   "here": {
      "description": "This message is injected in other strings as a link/button",
      "message": "Här"
   },
   "hide_this_button": {
      "description": "Toolbar button menu entry to hide the AdBlock button",
      "message": "Dölj knapp"
   },
   "invalidListUrl": {
      "description": "Message when you subscribe to a non-list URL",
      "message": "Ogiltig listadress. Den kommer att tas bort."
   },
   "lang_czech": {
      "description": "language",
      "message": "Tjeckiska"
   },
   "lang_english": {
      "description": "language",
      "message": "Engelska"
   },
   "lang_russian": {
      "description": "language",
      "message": "Ryska"
   },
   "lang_slovak": {
      "description": "language",
      "message": "Slovakiska"
   },
   "lang_ukranian": {
      "description": "language",
      "message": "Ukrainska"
   },
   "languagedropdowndescription": {
      "description": "Dropdown list for language-specific filters",
      "message": "Lägg till filter för andra språk: "
   },
   "latest_version": {
      "description": "On the Options > Support page, shows when there are no updates available for AdBlock",
      "message": "AdBlock är uppdaterad!"
   },
   "linkblockadbyurl": {
      "description": "Link on the 'Customize' tab",
      "message": "Blockera ett reklamtillägg via URL"
   },
   "linkhidesection": {
      "description": "Link on the 'Customize' tab",
      "message": "Dölj delar av en webbsida"
   },
   "linkunblock": {
      "description": "Link on the 'Customize' tab",
      "message": "Tillåt reklam på en webbsida eller domän"
   },
   "loading": {
      "description": "resourceblocking page string",
      "message": "LÄSER IN..."
   },
   "malwarecheck": {
      "description": "Section header on the ad report page",
      "message": "Malware-kontroll"
   },
   "malwarenotfound": {
      "description": "On the ad report page, the ads the user is seeing are probably not caused by malware/adware",
      "message": "Ingen känd, skadlig kod hittades."
   },
   "malwarewarning": {
      "description": "On the ad report page, the ads the user is seeing might be caused by malware/adware",
      "message": "Din dator kan vara infekterad av skadlig kod. Klicka \u003Ca>här\u003C/a> för mer information."
   },
   "manualexcludefilteredit": {
      "description": "Subtitle on the 'Customize' tab",
      "message": "Redigera inaktiverade filter:"
   },
   "manualfilteredit": {
      "description": "Subtitle on the 'Customize' tab",
      "message": "Redigera dina filter manuellt:"
   },
   "modifydomain": {
      "description": "Caption for the whitelist wizard slider that modifies the domain part of a URL",
      "message": "Domän:"
   },
   "modifypath": {
      "description": "Caption for the whitelist wizard slider that modifies the path part of a URL",
      "message": "Sida:"
   },
   "multipledomainshint": {
      "description": "resourceblocking page string",
      "message": "Separera multipla domäner med komma eller blanksteg"
   },
   "nextstep": {
      "description": "resourceblocking page string",
      "message": "Nästa steg"
   },
   "no": {
      "description": "A negative response to a question",
      "message": "Nej"
   },
   "nodefaultfilter1": {
      "description": "Instructions on ad report page pointing users to EasyList subscriptions list. 'Customize' should be the same text as the name of the 'Customize' tab.",
      "message": "Vi har ingen filterlista för det språket.\u003Cbr/>Försök hitta en passande lista som stöder språket $link$ eller blockera reklamen själv under fliken 'Anpassa'.",
      "placeholders": {
         "link": {
            "content": "\u003Ca id='link'>\u003C/a>",
            "example": "\u003Ca>here\u003C/a>"
         }
      }
   },
   "noresourcessend2": {
      "description": "resourceblocking page string",
      "message": "Något blev fel. Inga resurser skickades. Denna sida kommer att stängas. Försök att uppdatera webbsidan."
   },
   "nosearchresults": {
      "description": "Text in resourceblock shown if no results are found after searching",
      "message": "Inga resurser hittades"
   },
   "novalidurlpattern": {
      "description": "resourceblocking page string",
      "message": "Ange en giltig URL-mall att matcha!"
   },
   "only_block_ads_on_these_sites": {
      "description": "Label for textbox where user enters a list of sites on Customize tab",
      "message": "Blockera reklamtillägg, endast på dessa sidor:"
   },
   "onlyondomains": {
      "description": "resourceblocking page string",
      "message": "ENDAST sidor under den här domänen:"
   },
   "onlypagesonthisdomain": {
      "description": "On the resourceblocking page, option to disable a filter only on a specific domain",
      "message": "BARA sidor på domänen:"
   },
   "onlyresourcetypes": {
      "description": "resourceblocking page string",
      "message": "Detta filter används för resurser av den här typen:"
   },
   "operabutton_how_to_hide2": {
      "description": "Message explaining how to hide the AdBlock toolbar button. 'Hide Button' should match the text that Opera displays on the Extensions page.",
      "message": "Om du vill dölja knappen, gå till 'opera://extensions' och markera alternativet \"Dölj verktygsfältet\". Du kan visa den igen genom att avmarkera alternativet."
   },
   "options": {
      "description": "The text of the link on chrome://chrome/extensions that gets you to the Options page for an extension",
      "message": "Alternativ"
   },
   "optionstitle": {
      "description": "Title for the options page",
      "message": "AdBlock-alternativ"
   },
   "optionsversion": {
      "description": "Version number",
      "message": "Version $version$",
      "placeholders": {
         "version": {
            "content": "$1",
            "example": "2.0.9"
         }
      }
   },
   "oradblockforchrome": {
      "description": "Used for placeholder in checkinfirefox_2 string",
      "message": "eller AdBlock för Chrome"
   },
   "orchrome": {
      "description": "Used for placeholder in checkinfirefoxtitle and checkinfirefox_1 strings",
      "message": "eller krom"
   },
   "ordisablefilter": {
      "description": "On the resourceblocking page, choice to disable a filter instead of allowing or blocking a specific resource",
      "message": "... eller inaktivera filtret:"
   },
   "orenteraurl": {
      "description": "Link for custom subscription",
      "message": "Eller ange en URL:"
   },
   "other": {
      "description": "Multiple choice option",
      "message": "Annat"
   },
   "otherfilters": {
      "description": "List for other filters the user subscribed to",
      "message": "Andra filterlistor"
   },
   "pagelanguagecheck": {
      "description": "Question on ad report page",
      "message": "På vilket språk är sidan skriven?"
   },
   "pause_adblock": {
      "description": "Menu entry to pause AdBlock",
      "message": "Pausa AdBlock"
   },
   "pwyw": {
      "description": "Text of a payment request link",
      "message": "Betala vad du vill!"
   },
   "questionoridea": {
      "description": "Subtitle on the Support tab of the options",
      "message": "Har du en fråga eller någon ny idé?"
   },
   "reenableadsonebyone": {
      "description": "Tells the user to reenable the extensions one by one",
      "message": "Nu när alla tillägg är avaktiverade, måste du undersöka vilket tillägg som är orsakar felet. Aktivera nu tilläggen ett och ett. Det tillägg som får reklamen att visas igen, är det tillägg som du måste avinstallera för att bli av med reklamen."
   },
   "refusetocheck": {
      "description": "User is telling us they don't wish to investigate something for us",
      "message": "Jag vill inte leka testpilot just nu"
   },
   "reloadadpage": {
      "description": "Instruction on ad report page",
      "message": "Uppdatera sidan med reklamen."
   },
   "reloadpageafterwhitelist": {
      "description": "Checkbox on whitelist wizard",
      "message": "Uppdatera sidan."
   },
   "removefromlist": {
      "description": "Label to remove a custom filter",
      "message": "Ta bort från listan"
   },
   "removelabel": {
      "description": "Link to remove a filter on the resourceblock page",
      "message": "Ta bort"
   },
   "report_ad_on_page": {
      "description": "Entry in the AdBlock button menu",
      "message": "Rapportera ett tillägg på den här sidan"
   },
   "reportfilterlistproblem": {
      "description": "Telling the user to report an ad to a filter list maintainer",
      "message": "Detta är ett filterlistproblem. Rapportera det här: $link$",
      "placeholders": {
         "link": {
            "content": "$1",
            "example": "EXAMPLE 1: \u003Ca href='mailto:someguy@list.com'>John Doe\u003C/a>  EXAMPLE 2: \u003Ca href='http://easylist.org'>EasyList forums\u003C/a>"
         }
      }
   },
   "reportpubliclyavailable": {
      "description": "Ad report page string, when you're about to submit a report",
      "message": "OBS! Din rapport kan komma att bli pulicerad offentligt. Håll det i minnet om du inkluderar något av privat natur."
   },
   "reporttous2": {
      "description": "NOTE: non-English translations should replace the first sentence and instead say 'If you can speak English, you can report the ad to us \u003Ca>in the issue tracker\u003C/a>.'",
      "message": "Om du kan läsa/skriva engelska, kan du rapportera reklamtillägget till oss \u003Ca>in the issue tracker\u003C/a>."
   },
   "resourceblocklegend1": {
      "description": "resourceblocking page string",
      "message": "Förklaring:"
   },
   "resourceblocklegend2": {
      "description": "resourceblocking page string",
      "message": "Blockerade resurser"
   },
   "resourceblocklegend3": {
      "description": "resourceblocking page string",
      "message": "Vitlistade resurser"
   },
   "resourceblocklegend4": {
      "description": "resourceblocking page string",
      "message": "Blockerbara resurser"
   },
   "resourceblocklegend5": {
      "description": "resourceblocking page string",
      "message": "Visningsfilter tillämpas"
   },
   "resourceblocktitle": {
      "description": "resourceblocking page string",
      "message": "Blockera en resurs"
   },
   "resourcedomain": {
      "description": "Text shown when hovering over an item in the third-party column",
      "message": "Inläst från domänen:\n$domain$",
      "placeholders": {
         "domain": {
            "content": "$1",
            "example": "example.com"
         }
      }
   },
   "resourceiswhitelisted": {
      "description": "resourceblocking page string",
      "message": "Dom valda resurserna är vitlistade. Därför går dom inte att blockera."
   },
   "retryaftersubscribe": {
      "description": "Instructions on ad report page telling users to subscribe to a filter list and then check again to see whether the ad exists",
      "message": "Prenumerera på denna filterlista, och försök igen: $list_title$",
      "placeholders": {
         "list_title": {
            "content": "$1",
            "example": "French filters"
         }
      }
   },
   "safari50_updatenotice": {
      "description": "A message shown to Safari 5.0 users urging them to upgrade",
      "message": "Du använder en gammal version av Safari. Uppgradera till senaste version för att kunna använda AdBlocks verktygsikon till att pausa AdBlock, vitlista webbsidor och rapportera reklamtillägg. \u003Ca>Uppgradera nu\u003C/a>."
   },
   "safaributton_how_to_hide2": {
      "description": "Message explaining how to hide the AdBlock toolbar button. 'Customize Toolbar' should match the text that Safari displays in the toolbar's context menu.",
      "message": "Om du vill dölja knappen, högerklicka på Safaris verktygsfält och välj \"Anpassa verktygsfältet\". Dra sedan AdBlock-knappen bort från verktygsfältet. Du kan visa den igen genom att dra den tillbaka in i verktygsfältet."
   },
   "savebutton": {
      "description": "Save button",
      "message": "Spara"
   },
   "savereminder": {
      "description": "Reminder to press save",
      "message": "Glöm inte att spara!"
   },
   "searchexplanation": {
      "description": "Text in resourceblock when you hover your mouse over the search textbox",
      "message": "Använd * för att matcha noll eller fler tecken. Exempel: 'banner*.gif' matchar bilderna 'banner.gif', 'banner123.gif', och 'bannerxyz.gif'."
   },
   "searchplaceholder": {
      "description": "Text in resourceblock shown in the search textbox before you type something",
      "message": "Sök resurser..."
   },
   "selectlanguage": {
      "description": "Text for the first option in Langage Dropdown for Filter Lists tab in options. Include the ' -- ' on either side of your translation.",
      "message": "-- Välj språk --"
   },
   "selectresources": {
      "description": "resourceblocking page string",
      "message": "Välj den resurs du vill blockera eller undanta"
   },
   "show_ads_except_for": {
      "description": "Section title for blacklisting section of Customize tab",
      "message": "Visa reklamtillägg \u003Ci>överallt\u003C/i> utom på dessa domäner..."
   },
   "show_on_adblock_button": {
      "description": "Label for checkbox letting user choose whether the toolbar button should show a badge with the number of ads blocked",
      "message": "Visa på AdBlock-knappen"
   },
   "show_resourcelist": {
      "description": "Entry in the AdBlock button menu",
      "message": "Visa resurslistan"
   },
   "showcontextmenus2": {
      "description": "Checkbox on the 'General' tab of the Options page",
      "message": "Lägg till AdBlock i högerklickmenyn"
   },
   "showlinkstolists2": {
      "description": "Option on the 'Filter lists' tab of the Options page",
      "message": "Visa länk till filterlistorna"
   },
   "sliderexplanation": {
      "description": "Blacklister slider page message",
      "message": "Dra i skjutreglaget tills reklamen är korrekt blockerad, och sidan förövrigt ser använbar ut."
   },
   "slidertitle": {
      "description": "Blacklister slider page title",
      "message": "Steg 1: Ta reda på vad som skall blockeras"
   },
   "somethingwentwrong": {
      "description": "Displayed when AdBlock is checking the newest available version and an error occurs",
      "message": "Något gick fel vid uppdateringskontrollen."
   },
   "sourcecode": {
      "description": "Link to the source code of AdBlock on the Support tab of the options",
      "message": "Källkoden är \u003Ca>fritt tillgänglig\u003C/a>!"
   },
   "spread_the_word": {
      "description": "Text of a share link",
      "message": "Hjälp till att sprida budskapet!"
   },
   "status_disabled": {
      "description": "Message shown in toolbar button on web pages that disallow extensions, such as the Extensions Gallery or about:blank",
      "message": "AdBlock fungerar inte på den här domänen."
   },
   "status_paused": {
      "description": "Message shown in toolbar button when AdBlock is paused",
      "message": "AdBlock är pausad."
   },
   "stop_blocking_ads": {
      "description": "Section header on the 'Customize' tab",
      "message": "Sluta blockera reklamtillägg:"
   },
   "storage_quota_exceeded": {
      "description": "Message shown when the user uses more storage than allowed by the browser",
      "message": "Du har överskridit den maximala mängden lagringsutrymme som AdBlock kan använda. Avsluta prenumerationen på en eller flera filterlistor!"
   },
   "subscribebutton": {
      "description": "Subscribe to a list button",
      "message": "Prenumerera"
   },
   "subscribingfailed": {
      "description": "abp: link subscriber result",
      "message": "Misslyckades!"
   },
   "subscribingfinished": {
      "description": "abp: link subscriber result",
      "message": "Slutförd!"
   },
   "subscribingtitle": {
      "description": "abp: link subscriber title",
      "message": "Prenumerera på filterlista..."
   },
   "supportsite": {
      "description": "Link to the support site on the Support tab of the options",
      "message": "Låt oss veta, på vår \u003Ca>support-sida\u003C/a>!"
   },
   "tabcustomize": {
      "description": "A tab on the options page",
      "message": "Anpassa"
   },
   "tabcustomizetitle": {
      "description": "Title of the customize tab",
      "message": "Anpassa AdBlock"
   },
   "tabfilterlists": {
      "description": "A tab on the options page",
      "message": "Filterlistor"
   },
   "tabgeneral": {
      "description": "A tab on the options page",
      "message": "Allmänt"
   },
   "tabsupport": {
      "description": "A tab on the options page",
      "message": "Support"
   },
   "thirdparty": {
      "description": "Resource list column title telling if the resource originates from a different domain",
      "message": "Tredje-part"
   },
   "thirdpartycheckbox": {
      "description": "resourceblocking page string",
      "message": "Alla webbsidor FÖRUTOM webbsidor på domänen $domain$",
      "placeholders": {
         "domain": {
            "content": "$1",
            "example": "example.com"
         }
      }
   },
   "thisfilterwillbedisabled": {
      "description": "On the resourceblocking page, followed by the filter the user chose to disable",
      "message": "Detta filter inaktiveras:"
   },
   "translator_credit": {
      "description": "Will be followed by a list of translator names (separate string)",
      "message": "Översättning till Svenska:"
   },
   "typehiding": {
      "description": "A resource type",
      "message": "dold"
   },
   "typeimage": {
      "description": "A resource type",
      "message": "bild"
   },
   "typemedia": {
      "description": "A resource type",
      "message": "audio/video"
   },
   "typeobject": {
      "description": "A resource type",
      "message": "interaktivt objekt"
   },
   "typeobject_subrequest": {
      "description": "A resource type",
      "message": "object_subrequest"
   },
   "typeother": {
      "description": "A resource type",
      "message": "annat"
   },
   "typepage": {
      "description": "A resource type",
      "message": "sida"
   },
   "typepopup": {
      "description": "A resource type",
      "message": "popup"
   },
   "typescript": {
      "description": "A resource type",
      "message": "script"
   },
   "typestylesheet": {
      "description": "A resource type",
      "message": "stil-definition"
   },
   "typesubdocument": {
      "description": "A resource type",
      "message": "frame"
   },
   "typeunknown": {
      "description": "A resource type",
      "message": "okänd"
   },
   "typexmlhttprequest": {
      "description": "A resource type",
      "message": "xmlhttprequest"
   },
   "undo_last_block": {
      "description": "Menu entry to let the user cancel the result of running the blacklist wizard",
      "message": "Ångra mina blockeringar på denna domän"
   },
   "unpause_adblock": {
      "description": "Link text to unpause AdBlock, displayed immediately after 'AdBlock is paused'",
      "message": "Återaktivera AdBlock"
   },
   "unsubscribedlabel": {
      "description": "Status label",
      "message": "Prenumeration avslutad."
   },
   "update_available": {
      "description": "On the Options > Support page, shows when there are updates available for AdBlock",
      "message": "Det finns en uppdatering för AdBlock! Gå till $here$ för att uppdatera. \u003Cbr>Obs: om du vill få uppdateringar automatiskt, klicka bara på Safari > inställningar > Extensions > uppdateringar \u003Cbr>och markera alternativet \"Installera uppdateringar automatiskt\".",
      "placeholders": {
         "here": {
            "content": "\u003Ca id='here'>\u003C/a>",
            "example": "\u003Ca>here\u003C/a>"
         }
      }
   },
   "updateddayago": {
      "description": "Label for subscription",
      "message": "Uppdaterades för 1 dag sedan"
   },
   "updateddaysago": {
      "description": "Label for subscription",
      "message": "Uppdaterades för $days$ dagar sedan",
      "placeholders": {
         "days": {
            "content": "$1",
            "example": "15"
         }
      }
   },
   "updatedhourago": {
      "description": "Label for subscription",
      "message": "Uppdaterades för 1 timma sedan"
   },
   "updatedhoursago": {
      "description": "Label for subscription",
      "message": "Uppdaterades för $hours$ timmar sedan",
      "placeholders": {
         "hours": {
            "content": "$1",
            "example": "15"
         }
      }
   },
   "updatedminuteago": {
      "description": "Label for subscription",
      "message": "Uppdaterades för 1 minut sedan"
   },
   "updatedminutesago": {
      "description": "Label for subscription",
      "message": "Uppdaterades för $minutes$ minuter sedan",
      "placeholders": {
         "minutes": {
            "content": "$1",
            "example": "15"
         }
      }
   },
   "updatedrightnow": {
      "description": "Label for subscription",
      "message": "Uppdaterades just nu"
   },
   "updatedsecondsago": {
      "description": "Label for subscription",
      "message": "Uppdaterades för $seconds$ sekunder sedan",
      "placeholders": {
         "seconds": {
            "content": "$1",
            "example": "15"
         }
      }
   },
   "updatenowmessage2": {
      "description": "Update filters text + button",
      "message": "Uppdateringar hämtas automatiskt. Du kan också \u003Ca>uppdatera nu\u003C/a>"
   },
   "updateyourlists": {
      "description": "Section header on the ad report page",
      "message": "Kontrollera att dina filterlistor är uppdaterade"
   },
   "warning_overrules_filters": {
      "description": "Message on the 'Customize' tab of the options page, explaining the danger of adding a blacklisting filter",
      "message": "Varning: Du kommer att se tillägg på alla andra sidor!\u003Cbr>Det här åsidosätter också alla andra filter för dessa sidor ."
   },
   "whatmakesadblocktick": {
      "description": "Subtitle on the Support tab of the options",
      "message": "Vill se vad som får AdBlock att fungera?"
   },
   "whats_this": {
      "description": "Text of a link pointing to the explanation of a new feature",
      "message": "Vad är detta?"
   },
   "whatsnew": {
      "description": "Link to display the changelog on the Support tab of the options",
      "message": "Nyheter i den senaste versionen? Läs i \u003Ca style='cursor:pointer;'> ändringsloggen\u003C/a>!"
   },
   "whitelist_youtube_channel": {
      "description": "Text which is displayed on YouTube in popup menu",
      "message": "Vitlista den här YouTube-kanalen"
   },
   "whitelistertitle2": {
      "description": "The title of the whitelister dialog",
      "message": "Avaktivera AdBlock på..."
   },
   "whitelisteverycontaining": {
      "description": "resourceblocking page string",
      "message": "Vitlista varje resurs som innehåller:"
   },
   "wildcardhint": {
      "description": "resourceblocking page string",
      "message": "Notis: Du kan använda * som jokertecken här"
   },
   "wizardcantrunonframesets": {
      "description": "Message (alert) shown when the user tries to use a blacklist/whitelist wizard on an old website",
      "message": "Den här AdBlock-funktionen fungerar inte på denna sida eftersom den använder utdaterad teknologi. Du kan svart-/vitlista resurser manuellt, under fliken \"Anpassa\" i inställningarna."
   },
   "work_around_hulu_problems": {
      "description": "Advanced Options page checkbox, which users only need to use if Hulu.com videos break. It directs the user to restart their browser in order for changes to the checkbox to take effect.",
      "message": "Fixa felet som gör att video inte spelas upp på Hulu.com (kräver omstart av webbläsaren)."
   },
   "yes": {
      "description": "A positive response to a question",
      "message": "Ja"
   },
   "you_can_slide_to_change": {
      "description": "Instructions for how to use the whitelister slider controls. Sometimes only one slider will show, and sometimes two will show, and if possible the text should handle both cases.",
      "message": "Du kan dra i skjutreglaget för att ändra mer exakt, på vilka sidor AdBlock skall avaktiveras."
   },
   "you_know_thats_a_bad_idea_right": {
      "description": "Confirmation message shown to user if they try to subscribe to too many lists. The user will have two options: OK and Cancel.",
      "message": "Ju fler filterlistor du använder, dessto långsammare arbetar AdBlock.  För många listor kan även få din webbläsare att krascha på vissa sidor.  Tryck 'OK' för att prenumerera i alla fall."
   }
}
